Midterm Challenge: Philadelphia Housing Price Prediction – Luciano Lu - MUSA 5080 Portfolio
…
Code

opa_clean <- opa %>%
  mutate(sale_date = as.Date(sale_date)) %>%
  filter(between(sale_date, as.Date("2023-01-01"), as.Date("2024-12-31")))
read_csv("~/Datasets for r Trainning/opa_properties_public.csv", show_col_types = FALSE)

Warning: One or more parsing issues, call `problems()` on your data frame for details,
e.g.:
  dat <- vroom(...)
  problems(dat)

# A tibble: 583,776 × 79
    objectid assessment_date     basements beginning_point         book_and_page
       <dbl> <dttm>              <chr>     <chr>                   <chr>        
 1 695547670 2024-05-31 01:05:37 D         "90' W 21 ST"           54472500     
 2 695547671 2024-05-31 01:05:37 <NA>      "360'7 1/2\" W OF 20TH" 54472278     
 3 695547672 2024-05-31 01:05:37 <NA>      "313'6\" N OF MORSE ST" 54472444     
 4 695547673 2024-05-31 01:05:37 0         "SEC BIRWOOD ST"        54472241     
 5 695547674 2024-05-31 01:05:37 D         "61'8\" W OF 19TH ST"   54472329     
 6 695547675 2024-05-31 01:05:37 <NA>      "SEC BOUIER ST"         54472270     
 7 695547676 2024-05-31 01:05:37 <NA>      "51'6\"N JEFFERSON ST"  54472399     
 8 695547677 2024-05-31 01:05:37 J         "144' S TASKER ST"      54472391     
 9 695547678 2024-05-31 01:05:37 <NA>      "SWC OXFORD ST"         54472437     
10 695547679 2024-05-31 01:05:37 <NA>      "238' W BROAD ST"       54472359     
# ℹ 583,766 more rows
# ℹ 74 more variables: building_code <chr>, building_code_description <chr>,
#   category_code <dbl>, category_code_description <chr>, census_tract <dbl>,
#   central_air <chr>, cross_reference <lgl>, date_exterior_condition <lgl>,
#   depth <dbl>, exempt_building <dbl>, exempt_land <dbl>,
#   exterior_condition <dbl>, fireplaces <dbl>, frontage <dbl>, fuel <chr>,
#   garage_spaces <dbl>, garage_type <dbl>, general_construction <chr>, …
…
ℹ Use `spec()` to retrieve the full column specification for this data.
ℹ Specify the column types or set `show_col_types = FALSE` to quiet this message.

Code

transit_sf <- st_as_sf(Transit, coords = c("Lon", "Lat"), crs = 4326) %>%
  st_transform(st_crs(opa_census))
radius <- 400
opa_census$transit_count <- lengths(st_is_within_distance(opa_census, transit_sf, dist = radius))
read_csv("~/Datasets for r Trainning/Transit.csv", show_col_types = FALSE)

# A tibble: 22,478 × 11
           X        Y   FID LineAbbr Direction Sequence StopId StopAbbr StopName
       <dbl>    <dbl> <dbl> <chr>    <chr>        <dbl>  <dbl> <chr>    <chr>   
 1 -8364470. 4869338.     1 4        Northbou…       84  17382 9THWYONO 9th St …
 2 -8364431. 4869570.     2 4        Northbou…       85  28692 9THLOUNO 9th St …
 3 -8364395. 4869787.     3 4        Northbou…       86  17384 9THROCNO 9th St …
 4 -8364358. 4870003.     4 4        Northbou…       87  17386 9THRUSNO 9th St …
 5 -8364321. 4870222.     5 4        Northbou…       88  17387 9THLINNO 9th St …
 6 -8364284. 4870445.     6 4        Northbou…       89  17389 9THDUNNO 9th St …
 7 -8364248. 4870671.     7 4        Northbou…       90  17390 FIS9THWE 9th St …
 8 -8364419. 4870722.     8 4        Northbou…       91  17393 FIS10TWE Fisher …
 9 -8364534. 4870916.     9 4        Northbou…       92  28693 WAG10TNW 10th St…
10 -8364559. 4870989.    10 4        Northbou…       93  17394 11TSOMNO 11th St…
# ℹ 22,468 more rows
# ℹ 2 more variables: Lon <dbl>, Lat <dbl>
…
ℹ Use `spec()` to retrieve the full column specification for this data.
ℹ Specify the column types or set `show_col_types = FALSE` to quiet this message.

Code

recreation_sf <- st_as_sf(recreation, coords = c("X", "Y"), crs = 4326) %>% st_transform(st_crs(opa_census)) 
radius_rec <- 1200 
opa_census$recreation_count <- lengths(st_is_within_distance(opa_census, recreation_sf, dist = radius_rec)) 
read_csv("~/Datasets for r Trainning/recreation.csv", show_col_types = FALSE)

# A tibble: 171 × 12
       X     Y OBJECTID PARK_NAME  DPP_ASSET_ID PROGRAM_TYPE SITE_CLASS BUILDING
   <dbl> <dbl>    <dbl> <chr>             <dbl> <chr>        <chr>      <chr>   
 1 -75.2  40.0      807 Tiffany F…         1911 PPR_REC      A          Y       
 2 -75.2  40.0      808 Roberto C…         1831 PPR_REC      B          Y       
 3 -75.2  40.0      809 Miles Mac…         1910 PPR_REC      A          Y       
 4 -75.3  40.0      810 William T…         1864 PPR_REC      B          Y       
 5 -75.2  40.0      811 Francisvi…         1859 PPR_REC      A          Y       
 6 -75.3  40.0      812 Charles A…         1929 PPR_REC      A          Y       
 7 -75.1  40.0      813 Fishtown …         1856 PPR_REC      A          Y       
 8 -75.1  40.0      814 Narcissa …          908 PPR_REC      A          Y       
 9 -75.2  40.0      815 Conestoga…         1982 PPR_REC      A          Y       
10 -75.1  40.0      816 Dan Shiss…         1844 PPR_REC      A          Y       
# ℹ 161 more rows
# ℹ 4 more variables: GYM <chr>, LABEL_NUMBER <lgl>, COMMENTS <chr>,
#   DATA_SOURCE <chr>
…
ℹ Use `spec()` to retrieve the full column specification for this data.
ℹ Specify the column types or set `show_col_types = FALSE` to quiet this message.

Code

crime_sf <- st_as_sf(crime, coords = c("lng", "lat"), crs = 4326) %>%
  st_transform(st_crs(opa_census)) 
radius_cri <- 400 
opa_census$crime_count <- lengths(st_is_within_distance(opa_census, crime_sf, dist = radius_cri)) 
read_csv("~/Datasets for r Trainning/crime.csv", show_col_types = FALSE)

# A tibble: 169,017 × 18
   the_geom               cartodb_id the_geom_webmercator objectid dc_dist psa  
   <chr>                       <dbl> <chr>                   <dbl> <chr>   <chr>
 1 0101000020E61000002C3…      43806 0101000020110F0000F… 32951062 02      1    
 2 0101000020E6100000905…      43828 0101000020110F00008… 32951072 17      1    
 3 0101000020E6100000A4F…      43847 0101000020110F00002… 32951081 14      2    
 4 0101000020E6100000A4F…      43848 0101000020110F00002… 32951082 14      2    
 5 0101000020E6100000A4F…      43849 0101000020110F00002… 32951083 14      2    
 6 0101000020E6100000241…      43850 0101000020110F0000B… 32951108 03      3    
 7 0101000020E6100000580…      43905 0101000020110F00002… 32951093 12      4    
 8 0101000020E6100000580…      43906 0101000020110F00002… 32951094 12      4    
 9 0101000020E6100000580…      43908 0101000020110F00002… 32951095 12      4    
10 0101000020E6100000580…      43911 0101000020110F00002… 32951096 12      4    
# ℹ 169,007 more rows
# ℹ 12 more variables: dispatch_date_time <dttm>, dispatch_date <date>,
#   dispatch_time <time>, hour <dbl>, dc_key <dbl>, location_block <chr>,
#   ucr_general <dbl>, text_general_code <chr>, point_x <dbl>, point_y <dbl>,
#   lat <dbl>, lng <dbl>
…
print(summary_table)

# A tibble: 33 × 5
   variable                  mean         sd   min      max
   <chr>                    <dbl>      <dbl> <dbl>    <dbl>
 1 sale_price          339609.    458326.     1500 15428633
 2 market_value        299951.    308680.     5000 14660000
 3 total_livable_area    1368.       602.      120    14150
 4 number_of_bedrooms       2.83       0.998     0       12
 5 number_of_bathrooms      1.38       0.723     0       12
 6 number_stories           1.96       0.585     1        5
 7 garage_spaces            0.343      0.585     0       37
 8 central_air              0.600      0.490     0        1
 9 interior_condition       3.37       0.981     0        7
10 exterior_condition       3.68       0.884     0        7
# ℹ 23 more rows
…
